-50 5 30.9417
-50 5 -49.0583
-49.997 5 -49.4073
-49.9878 5 -49.7563
-49.9726 5 -50.105
-49.9513 5 -50.4534
-49.9239 5 -50.8014
-49.8904 5 -51.1489
-49.8509 5 -51.4957
-49.8054 5 -51.8418
-49.7538 5 -52.187
-49.6962 5 -52.5313
-49.6325 5 -52.8745
-49.563 5 -53.2165
-49.4874 5 -53.5573
-49.4059 5 -53.8967
-49.3185 5 -54.2347
-49.2252 5 -54.571
-49.1261 5 -54.9057
-49.0211 5 -55.2386
-48.9104 5 -55.5697
-48.7939 5 -55.8987
-48.6716 5 -56.2257
-48.5437 5 -56.5504
-48.4101 5 -56.8729
-48.2709 5 -57.193
-48.1262 5 -57.5107
-47.9759 5 -57.8257
-47.8201 5 -58.1381
-47.659 5 -58.4477
-47.4924 5 -58.7545
-47.3205 5 -59.0583
-47.1433 5 -59.3591
-46.961 5 -59.6567
-46.7734 5 -59.9511
-46.5808 5 -60.2422
-46.383 5 -60.5298
-46.1803 5 -60.814
-45.9727 5 -61.0946
-45.7602 5 -61.3715
-45.5429 5 -61.6447
-45.3209 5 -61.9141
-45.0942 5 -62.1795
-44.8629 5 -62.4409
-44.6271 5 -62.6983
-44.3868 5 -62.9515
-44.1421 5 -63.2004
-43.8932 5 -63.4451
-43.64 5 -63.6854
-43.3826 5 -63.9212
-43.1212 5 -64.1525
-42.8558 5 -64.3792
-42.5864 5 -64.6012
-42.3132 5 -64.8185
-42.0363 5 -65.031
-41.7557 5 -65.2386
-41.4715 5 -65.4413
-41.1839 5 -65.6391
-40.8928 5 -65.8317
-40.5984 5 -66.0193
-40.3008 5 -66.2016
-40 5 -66.3788
-39.6962 5 -66.5507
-39.3894 5 -66.7173
-39.0798 5 -66.8784
-38.7674 5 -67.0342
-38.4524 5 -67.1845
-38.1347 5 -67.3292
-37.8146 5 -67.4684
-37.4921 5 -67.602
-37.1674 5 -67.7299
-36.8404 5 -67.8522
-36.5114 5 -67.9687
-36.1803 5 -68.0794
-35.8474 5 -68.1844
-35.5127 5 -68.2835
-35.1764 5 -68.3768
-34.8384 5 -68.4642
-34.499 5 -68.5457
-34.1582 5 -68.6213
-33.8162 5 -68.6908
-33.473 5 -68.7545
-33.1287 5 -68.8121
-32.7835 5 -68.8637
-32.4374 5 -68.9092
-32.0906 5 -68.9487
-31.7431 5 -68.9822
-31.3951 5 -69.0096
-31.0467 5 -69.0309
-30.698 5 -69.0461
-30.349 5 -69.0553
-30 5 -69.0583
-20 5 -69.0583
-19.651 5 -69.0553
-19.302 5 -69.0461
-18.9533 5 -69.0309
-18.6049 5 -69.0096
-18.2569 5 -68.9822
-17.9094 5 -68.9487
-17.5626 5 -68.9092
-17.2165 5 -68.8637
-16.8713 5 -68.8121
-16.527 5 -68.7545
-16.1838 5 -68.6908
-15.8418 5 -68.6213
-15.501 5 -68.5457
-15.1616 5 -68.4642
-14.8236 5 -68.3768
-14.4873 5 -68.2835
-14.1526 5 -68.1844
-13.8197 5 -68.0794
-13.4886 5 -67.9687
-13.1596 5 -67.8522
-12.8326 5 -67.7299
-12.5079 5 -67.602
-12.1854 5 -67.4684
-11.8653 5 -67.3292
-11.5476 5 -67.1845
-11.2326 5 -67.0342
-10.9202 5 -66.8784
-10.6106 5 -66.7173
-10.3038 5 -66.5507
-10 5 -66.3788
-9.69924 5 -66.2016
-9.40161 5 -66.0193
-9.10722 5 -65.8317
-8.81614 5 -65.6391
-8.52847 5 -65.4413
-8.24429 5 -65.2386
-7.9637 5 -65.031
-7.68677 5 -64.8185
-7.41359 5 -64.6012
-7.14425 5 -64.3792
-6.87882 5 -64.1525
-6.61739 5 -63.9212
-6.36003 5 -63.6854
-6.10683 5 -63.4451
-5.85786 5 -63.2004
-5.6132 5 -62.9515
-5.37293 5 -62.6983
-5.1371 5 -62.4409
-4.90581 5 -62.1795
-4.67911 5 -61.9141
-4.45708 5 -61.6447
-4.23978 5 -61.3715
-4.02729 5 -61.0946
-3.81966 5 -60.814
-3.61696 5 -60.5298
-3.41925 5 -60.2422
-3.22659 5 -59.9511
-3.03904 5 -59.6567
-2.85665 5 -59.3591
-2.67949 5 -59.0583
-2.50761 5 -58.7545
-2.34105 5 -58.4477
-2.17987 5 -58.1381
-2.02412 5 -57.8257
-1.87384 5 -57.5107
-1.72909 5 -57.193
-1.5899 5 -56.8729
-1.45632 5 -56.5504
-1.32839 5 -56.2257
-1.20615 5 -55.8987
-1.08963 5 -55.5697
-0.97887 5 -55.2386
-0.873905 5 -54.9057
-0.774766 5 -54.571
-0.681483 5 -54.2347
-0.594085 5 -53.8967
-0.512599 5 -53.5573
-0.437048 5 -53.2165
-0.367456 5 -52.8745
-0.303845 5 -52.5313
-0.246233 5 -52.187
-0.194639 5 -51.8418
-0.149077 5 -51.4957
-0.109562 5 -51.1489
-0.076106 5 -50.8014
-0.048719 5 -50.4534
-0.0274093 5 -50.105
-0.0121835 5 -49.7563
-0.0030461 5 -49.4073
0 5 -49.0583
1.42109e-14 5 30.9417
