<?xml version="1.0" encoding="UTF-8" standalone="no"?>
<svg
   width="16"
   height="16"
   viewBox="0 0 16 16"
   fill="none"
   version="1.1"
   id="svg834"
   sodipodi:docname="table_clear.svg"
   inkscape:version="1.1 (c68e22c387, 2021-05-23)"
   xmlns:inkscape="http://www.inkscape.org/namespaces/inkscape"
   xmlns:sodipodi="http://sodipodi.sourceforge.net/DTD/sodipodi-0.dtd"
   xmlns="http://www.w3.org/2000/svg"
   xmlns:svg="http://www.w3.org/2000/svg">
  <defs
     id="defs838" />
  <sodipodi:namedview
     id="namedview836"
     pagecolor="#ffffff"
     bordercolor="#999999"
     borderopacity="1"
     inkscape:pageshadow="0"
     inkscape:pageopacity="0"
     inkscape:pagecheckerboard="0"
     showgrid="false"
     inkscape:zoom="112"
     inkscape:cx="7.2991071"
     inkscape:cy="10.1875"
     inkscape:window-width="3840"
     inkscape:window-height="2050"
     inkscape:window-x="-12"
     inkscape:window-y="-12"
     inkscape:window-maximized="1"
     inkscape:current-layer="svg834" />
  <path
     d="m 4.2308673,4.690051 h 0.6045919 m 7.2551018,0 h -0.604592 m -6.6505098,0 v 6.045918 c 0,1.001749 0.8120575,1.813776 1.8137755,1.813776 h 3.0229592 c 1.0017481,0 1.8137751,-0.812027 1.8137751,-1.813776 V 4.690051 m -6.6505098,0 h 1.8137755 m 4.8367343,0 H 9.6721939 m -3.0229592,0 V 4.0854592 c 0,-0.333907 0.2706878,-0.6045919 0.6045918,-0.6045919 H 9.067602 c 0.3339161,0 0.6045919,0.2706849 0.6045919,0.6045919 V 4.690051 m -3.0229592,0 H 9.6721939 M 6.9515306,6.2015306 V 11.038265 M 9.3698979,6.2015306 v 4.8367344"
     stroke="#687587"
     stroke-linecap="round"
     stroke-linejoin="round"
     id="path832"
     style="stroke:#ffffff;stroke-width:0.604592;stroke-opacity:1"
     sodipodi:nodetypes="ccccccsssccccccssssccccccc" />
</svg>
